(export (version D)
  (design
    (source C:/Users/akira/Desktop/circuits/japaribus/as5048b_breakout/as5048b_breakout.sch)
    (date "2018/01/20 11:52:34")
    (tool "Eeschema 4.0.6")
    (sheet (number 1) (name /) (tstamps /)
      (title_block
        (title)
        (company)
        (rev)
        (date)
        (source as5048b_breakout.sch)
        (comment (number 1) (value ""))
        (comment (number 2) (value ""))
        (comment (number 3) (value ""))
        (comment (number 4) (value "")))))
  (components
    (comp (ref U1)
      (value AS5048B)
      (footprint Housings_SSOP:TSSOP-14_4.4x5mm_Pitch0.65mm)
      (libsource (lib as5048b) (part AS5048B))
      (sheetpath (names /) (tstamps /))
      (tstamp 5A20636C))
    (comp (ref C2)
      (value 10u)
      (footprint Capacitors_SMD:C_0603_HandSoldering)
      (libsource (lib device) (part C))
      (sheetpath (names /) (tstamps /))
      (tstamp 5A2063C9))
    (comp (ref R1)
      (value R)
      (footprint Resistors_SMD:R_0603)
      (libsource (lib device) (part R))
      (sheetpath (names /) (tstamps /))
      (tstamp 5A20681B))
    (comp (ref R5)
      (value R)
      (footprint Resistors_SMD:R_0603)
      (libsource (lib device) (part R))
      (sheetpath (names /) (tstamps /))
      (tstamp 5A206842))
    (comp (ref R2)
      (value R)
      (footprint Resistors_SMD:R_0603)
      (libsource (lib device) (part R))
      (sheetpath (names /) (tstamps /))
      (tstamp 5A206865))
    (comp (ref R6)
      (value R)
      (footprint Resistors_SMD:R_0603)
      (libsource (lib device) (part R))
      (sheetpath (names /) (tstamps /))
      (tstamp 5A20688E))
    (comp (ref C1)
      (value 10u)
      (footprint Capacitors_SMD:C_0603_HandSoldering)
      (libsource (lib device) (part C))
      (sheetpath (names /) (tstamps /))
      (tstamp 5A2069E6))
    (comp (ref J1)
      (value CONN_01X04)
      (footprint Pin_Headers:Pin_Header_Straight_1x04_Pitch2.54mm)
      (libsource (lib conn) (part CONN_01X04))
      (sheetpath (names /) (tstamps /))
      (tstamp 5A20745C)))
  (libparts
    (libpart (lib as5048b) (part AS5048B)
      (description AS5048B)
      (footprints
        (fp TSSOP_16))
      (fields
        (field (name Reference) U)
        (field (name Value) AS5048B))
      (pins
        (pin (num 1) (name SDA) (type input))
        (pin (num 2) (name SCL) (type input))
        (pin (num 3) (name A2) (type input))
        (pin (num 4) (name A1) (type input))
        (pin (num 5) (name T1) (type input))
        (pin (num 6) (name T2) (type input))
        (pin (num 7) (name T3) (type input))
        (pin (num 8) (name T4) (type input))
        (pin (num 9) (name T5) (type input))
        (pin (num 10) (name T6) (type input))
        (pin (num 11) (name VDD5) (type input))
        (pin (num 12) (name VDD3) (type input))
        (pin (num 13) (name GND) (type input))
        (pin (num 14) (name PWM) (type input))))
    (libpart (lib device) (part C)
      (description "Unpolarized capacitor")
      (footprints
        (fp C_*))
      (fields
        (field (name Reference) C)
        (field (name Value) C))
      (pins
        (pin (num 1) (name ~) (type passive))
        (pin (num 2) (name ~) (type passive))))
    (libpart (lib conn) (part CONN_01X04)
      (description "Connector, single row, 01x04, pin header")
      (footprints
        (fp Pin_Header_Straight_1X*)
        (fp Pin_Header_Angled_1X*)
        (fp Socket_Strip_Straight_1X*)
        (fp Socket_Strip_Angled_1X*))
      (fields
        (field (name Reference) J)
        (field (name Value) CONN_01X04))
      (pins
        (pin (num 1) (name P1) (type passive))
        (pin (num 2) (name P2) (type passive))
        (pin (num 3) (name P3) (type passive))
        (pin (num 4) (name P4) (type passive))))
    (libpart (lib device) (part R)
      (description Resistor)
      (footprints
        (fp R_*)
        (fp R_*))
      (fields
        (field (name Reference) R)
        (field (name Value) R))
      (pins
        (pin (num 1) (name ~) (type passive))
        (pin (num 2) (name ~) (type passive)))))
  (libraries
    (library (logical conn)
      (uri "C:\\Program Files\\KiCad\\share\\kicad\\library\\conn.lib"))
    (library (logical as5048b)
      (uri C:\Users\akira\Desktop\circuits\japaribus\as5048b_breakout\as5048b.lib))
    (library (logical device)
      (uri "C:\\Program Files\\KiCad\\share\\kicad\\library\\device.lib")))
  (nets
    (net (code 1) (name "Net-(R2-Pad1)")
      (node (ref R2) (pin 1))
      (node (ref R6) (pin 2))
      (node (ref U1) (pin 3)))
    (net (code 2) (name "Net-(R1-Pad1)")
      (node (ref R1) (pin 1))
      (node (ref R5) (pin 2))
      (node (ref U1) (pin 4)))
    (net (code 3) (name "Net-(C2-Pad2)")
      (node (ref C2) (pin 2))
      (node (ref U1) (pin 12)))
    (net (code 4) (name VCC)
      (node (ref C1) (pin 2))
      (node (ref U1) (pin 11))
      (node (ref R2) (pin 2))
      (node (ref R1) (pin 2))
      (node (ref J1) (pin 4)))
    (net (code 5) (name "Net-(J1-Pad1)")
      (node (ref U1) (pin 2))
      (node (ref J1) (pin 1)))
    (net (code 6) (name "Net-(J1-Pad3)")
      (node (ref U1) (pin 1))
      (node (ref J1) (pin 3)))
    (net (code 7) (name GND)
      (node (ref C1) (pin 1))
      (node (ref R6) (pin 1))
      (node (ref J1) (pin 2))
      (node (ref U1) (pin 10))
      (node (ref R5) (pin 1))
      (node (ref U1) (pin 5))
      (node (ref C2) (pin 1))
      (node (ref U1) (pin 13))
      (node (ref U1) (pin 9))
      (node (ref U1) (pin 8))
      (node (ref U1) (pin 7))
      (node (ref U1) (pin 6)))
    (net (code 8) (name "Net-(U1-Pad14)")
      (node (ref U1) (pin 14)))))